{
  "CTL" : "Ereq1Ucs1",
  "KS" : {
    "etats" : ["0","1","2","3","4","5","6","7"],
    "etatInit" : "0",
    "etatsTransitions" : [
      ["0","req1","1"],
      ["0","req2","2"],
      ["1","req2","3"],
      ["2","req1","3"],
      ["3","cs1","6"],
      ["3","cs2","7"],
      ["1","cs1","4"],
      ["2","cs2","5"],
      ["4","req2","6"],
      ["5","req1","7"],
      ["6","end1","2"],
      ["7","end2","1"],
      ["4","end1","0"],
      ["5","end2","0"]]
  }
}
